[
  {
    "_id": "ABC123",
    "firstname": "John",
    "lastname": "Doe",
    "email": "johndoe@mail.com",
    "password": "jhondoe123",
    "isAdmin": false,
    "mobileNumber": "0987654321",
    "enrollments": ["course100", "course123"],
    "dateRegistered": "2023-02-27"
  },
  {
    "_id": "DFE456",
    "firstname": "Giorno",
    "lastname": "Giovanni",
    "email": "ggiovanni@mail.com",
    "password": "giovanni",
    "isAdmin": true,
    "mobileNumber": "1234567890",
    "enrollments": [],
    "dateRegistered": "2023-02-27"
  },
  {
    "_id": "GHI789",
    "firstname": "Damiel",
    "lastname": "Padilla",
    "email": "dj@mail.com",
    "password": "pogi",
    "isAdmin": false,
    "mobileNumber": "0987654321",
    "enrollments": ["course123"],
    "dateRegistered": "2023-02-27"
  }
]
